Using UKB primary care prescription data • ukbkings
…
Replace empty strings with NA, fix column types, and drop prescriptions without an associated date (if appropriate).

px <- px %>%
    mutate(
        across(.fns = ~ na_if(.x, "")),
        across(read_2:quantity, as.character),
        issue_date = as_date(issue_date, format = "%d/%m/%Y"),
    ) %>%
    filter(!is.na(issue_date))

The drug_name and quantity columns are messy, with 1,655 and 4,830 unique entries in this subset of prescriptions.

px %>% distinct(drug_name)

# A tibble: 1,655 × 1
   drug_name                              
                                     
 1 Fluoxetine 20mg capsules               
 2 Citalopram 10mg tablets                
 3 Citalopram 20mg tablets                
 4 Citalopram 40mg tablets                
 5 Sertraline 50mg tablets                
 6 Amitriptyline 10mg tablets             
 7 Escitalopram 5mg tablets               
 8 Escitalopram 20mg tablets              
 9 Escitalopram 10mg tablets              
10 Mirtazapine 15mg orodispersible tablets
# … with 1,645 more rows

px %>% distinct(quantity)

# A tibble: 4,830 × 1
   quantity           
                 
 1 30 cap             
 2 28 tab             
 3 56 tablets         
 4 56 tablet          
 5 28 tablet          
 6 28 tablets         
 7 30 capsules - 20 mg
 8 60 capsules - 20 mg
 9 28 tablet(s)       
10 56 tablet(s)       
# … with 4,820 more rows
…
